{
	"info": {
		"_postman_id": "e107336c-a9ec-4e22-9a6b-1a1d6260de02",
		"name": "Java - Task 6 - Movie Character API",
		"schema": "https://schema.getpostman.com/json/collection/v2.1.0/collection.json"
	},
	"item": [
		{
			"name": "Character",
			"item": [
				{
					"name": "Get all characters",
					"protocolProfileBehavior": {
						"disableBodyPruning": true
					},
					"request": {
						"method": "GET",
						"header": [],
						"body": {
							"mode": "raw",
							"raw": "",
							"options": {
								"raw": {
									"language": "json"
								}
							}
						},
						"url": {
							"raw": "https://movie-api-experis.herokuapp.com/api/v1/characters/",
							"protocol": "https",
							"host": [
								"movie-api-experis",
								"herokuapp",
								"com"
							],
							"path": [
								"api",
								"v1",
								"characters",
								""
							]
						},
						"description": "Returns information about all characters."
					},
					"response": []
				},
				{
					"name": "Get character by id",
					"request": {
						"method": "GET",
						"header": [],
						"url": {
							"raw": "https://movie-api-experis.herokuapp.com/api/v1/characters/4",
							"protocol": "https",
							"host": [
								"movie-api-experis",
								"herokuapp",
								"com"
							],
							"path": [
								"api",
								"v1",
								"characters",
								"4"
							]
						},
						"description": "Returns information about a character, specified by id (long).\n"
					},
					"response": []
				},
				{
					"name": "Delete character",
					"request": {
						"method": "DELETE",
						"header": [],
						"url": {
							"raw": "https://movie-api-experis.herokuapp.com/api/v1/characters/7",
							"protocol": "https",
							"host": [
								"movie-api-experis",
								"herokuapp",
								"com"
							],
							"path": [
								"api",
								"v1",
								"characters",
								"7"
							]
						},
						"description": "Deletes a character, specified by id (long)."
					},
					"response": []
				},
				{
					"name": "Add character",
					"request": {
						"method": "POST",
						"header": [],
						"body": {
							"mode": "raw",
							"raw": "{\r\n    \"name\": \"Noor Bell\",\r\n    \"alias\": \"Dingding\",\r\n    \"gender\": \"F\",\r\n    \"picture\": \"NoorBell.jpg\",\r\n    \"movies\": [\r\n        {\r\n            \"movieId\": 2\r\n        }\r\n    ]\r\n}",
							"options": {
								"raw": {
									"language": "json"
								}
							}
						},
						"url": {
							"raw": "https://movie-api-experis.herokuapp.com/api/v1/characters/",
							"protocol": "https",
							"host": [
								"movie-api-experis",
								"herokuapp",
								"com"
							],
							"path": [
								"api",
								"v1",
								"characters",
								""
							]
						},
						"description": "Accepts a character object in request body and inserts new values into the database.\n"
					},
					"response": []
				},
				{
					"name": "Update character",
					"request": {
						"method": "PUT",
						"header": [],
						"body": {
							"mode": "raw",
							"raw": "{\r\n    \"characterId\": 6,\r\n    \"name\": \"Matt Damon\",\r\n    \"alias\": \"Matty\",\r\n    \"gender\": \"M\",\r\n    \"picture\": \"MattDamon.jpg\",\r\n    \"movies\": [\r\n        {\r\n            \"movieId\": 3\r\n        }\r\n    ]\r\n}",
							"options": {
								"raw": {
									"language": "json"
								}
							}
						},
						"url": {
							"raw": "https://movie-api-experis.herokuapp.com/api/v1/characters/6",
							"protocol": "https",
							"host": [
								"movie-api-experis",
								"herokuapp",
								"com"
							],
							"path": [
								"api",
								"v1",
								"characters",
								"6"
							]
						},
						"description": "Accepts a character object in request body and updates values in the database on provided id (long)."
					},
					"response": []
				}
			],
			"protocolProfileBehavior": {}
		},
		{
			"name": "Movie",
			"item": [
				{
					"name": "Get all movies",
					"request": {
						"method": "GET",
						"header": [],
						"url": {
							"raw": "https://movie-api-experis.herokuapp.com/api/v1/movies/",
							"protocol": "https",
							"host": [
								"movie-api-experis",
								"herokuapp",
								"com"
							],
							"path": [
								"api",
								"v1",
								"movies",
								""
							]
						},
						"description": "Returns information about all movies."
					},
					"response": []
				},
				{
					"name": "Get movie by id",
					"request": {
						"method": "GET",
						"header": [],
						"url": {
							"raw": "https://movie-api-experis.herokuapp.com/api/v1/movies/3",
							"protocol": "https",
							"host": [
								"movie-api-experis",
								"herokuapp",
								"com"
							],
							"path": [
								"api",
								"v1",
								"movies",
								"3"
							]
						},
						"description": "Returns information about a movie, specified by id (long)."
					},
					"response": []
				},
				{
					"name": "Get all character in movie",
					"request": {
						"method": "GET",
						"header": [],
						"url": {
							"raw": "https://movie-api-experis.herokuapp.com/api/v1/movies/3/characters",
							"protocol": "https",
							"host": [
								"movie-api-experis",
								"herokuapp",
								"com"
							],
							"path": [
								"api",
								"v1",
								"movies",
								"3",
								"characters"
							]
						},
						"description": "Returns information about all characters who've played in this movie specified by movie id (long)."
					},
					"response": []
				},
				{
					"name": "Add movie",
					"request": {
						"method": "POST",
						"header": [],
						"body": {
							"mode": "raw",
							"raw": "{\r\n        \"title\": \"The Martian\",\r\n        \"genres\": \"Science fiction\",\r\n        \"releaseYear\": 2015,\r\n        \"director\": \"L. Villa\",\r\n        \"picture\": \"TheMartian.png\",\r\n        \"trailer\": \"https://www.youtube.com/watch?v=ej3ioOneTy8\",\r\n        \"characters\": [\r\n            {\r\n                \"characterId\": 2\r\n            },\r\n            {\r\n                \"characterId\": 5\r\n            }\r\n        ],\r\n        \"franchise\": {\r\n            \"franchiseId\": 2\r\n        }\r\n    }",
							"options": {
								"raw": {
									"language": "json"
								}
							}
						},
						"url": {
							"raw": "https://movie-api-experis.herokuapp.com/api/v1/movies/",
							"protocol": "https",
							"host": [
								"movie-api-experis",
								"herokuapp",
								"com"
							],
							"path": [
								"api",
								"v1",
								"movies",
								""
							]
						},
						"description": "Accepts a movie object in request body and inserts new values into the database."
					},
					"response": []
				},
				{
					"name": "Update movie",
					"request": {
						"method": "PUT",
						"header": [],
						"body": {
							"mode": "raw",
							"raw": "{\r\n    \"movieId\": 3,\r\n    \"title\": \"Interstellar\",\r\n    \"genres\": \"Comedy\",\r\n    \"releaseYear\": 2014,\r\n    \"director\": \"L. Villa\",\r\n    \"picture\": \"Murph.png\",\r\n    \"trailer\": \"https://www.youtube.com/watch?v=zSWdZVtXT7E\",\r\n    \"characters\": [\r\n        {\r\n            \"characterId\": 2\r\n        },\r\n        {\r\n            \"characterId\": 5\r\n        }\r\n    ],\r\n    \"franchise\": \r\n    {\r\n        \"franchiseId\": 3\r\n    }\r\n}",
							"options": {
								"raw": {
									"language": "json"
								}
							}
						},
						"url": {
							"raw": "https://movie-api-experis.herokuapp.com/api/v1/movies/3",
							"protocol": "https",
							"host": [
								"movie-api-experis",
								"herokuapp",
								"com"
							],
							"path": [
								"api",
								"v1",
								"movies",
								"3"
							]
						},
						"description": "Accepts a movie object in request body and updates values in the database on provided id (long).\n"
					},
					"response": []
				},
				{
					"name": "Delete movie",
					"request": {
						"method": "DELETE",
						"header": [],
						"url": {
							"raw": "https://movie-api-experis.herokuapp.com/api/v1/movies/5",
							"protocol": "https",
							"host": [
								"movie-api-experis",
								"herokuapp",
								"com"
							],
							"path": [
								"api",
								"v1",
								"movies",
								"5"
							]
						},
						"description": "Deletes a movie, specified by id (long)."
					},
					"response": []
				}
			],
			"protocolProfileBehavior": {}
		},
		{
			"name": "Franchise",
			"item": [
				{
					"name": "Get all franchises",
					"protocolProfileBehavior": {
						"disableBodyPruning": true
					},
					"request": {
						"method": "GET",
						"header": [],
						"body": {
							"mode": "raw",
							"raw": "",
							"options": {
								"raw": {}
							}
						},
						"url": {
							"raw": "https://movie-api-experis.herokuapp.com/api/v1/franchises/",
							"protocol": "https",
							"host": [
								"movie-api-experis",
								"herokuapp",
								"com"
							],
							"path": [
								"api",
								"v1",
								"franchises",
								""
							]
						},
						"description": "Returns information about all franchises.\n"
					},
					"response": []
				},
				{
					"name": "Get franchise by id",
					"request": {
						"method": "GET",
						"header": [],
						"url": {
							"raw": "https://movie-api-experis.herokuapp.com/api/v1/franchises/5/",
							"protocol": "https",
							"host": [
								"movie-api-experis",
								"herokuapp",
								"com"
							],
							"path": [
								"api",
								"v1",
								"franchises",
								"5",
								""
							]
						},
						"description": "Returns information about a franchise, specified by id (long)."
					},
					"response": []
				},
				{
					"name": "Get all characters in franchise",
					"request": {
						"method": "GET",
						"header": [],
						"url": {
							"raw": "https://movie-api-experis.herokuapp.com/api/v1/franchises/4/characters",
							"protocol": "https",
							"host": [
								"movie-api-experis",
								"herokuapp",
								"com"
							],
							"path": [
								"api",
								"v1",
								"franchises",
								"4",
								"characters"
							]
						},
						"description": "Returns information about all characters playing a role this franchise, specified by franchise id (long).\n"
					},
					"response": []
				},
				{
					"name": "Get all movies in franchise",
					"request": {
						"method": "GET",
						"header": [],
						"url": {
							"raw": "https://movie-api-experis.herokuapp.com/api/v1/franchises/4/movies",
							"protocol": "https",
							"host": [
								"movie-api-experis",
								"herokuapp",
								"com"
							],
							"path": [
								"api",
								"v1",
								"franchises",
								"4",
								"movies"
							]
						},
						"description": "Returns information about all movies in franchise, specified by franchise id (long).\n"
					},
					"response": []
				},
				{
					"name": "Add franchise",
					"request": {
						"method": "POST",
						"header": [],
						"body": {
							"mode": "raw",
							"raw": "{\r\n    \"name\": \"Rocky\",\r\n    \"description\": \"Boxing movies and stuff\",\r\n    \"movies\": [\r\n        {\r\n            \"movieId\": 2\r\n        }\r\n    ]\r\n}",
							"options": {
								"raw": {
									"language": "json"
								}
							}
						},
						"url": {
							"raw": "https://movie-api-experis.herokuapp.com/api/v1/franchises/",
							"protocol": "https",
							"host": [
								"movie-api-experis",
								"herokuapp",
								"com"
							],
							"path": [
								"api",
								"v1",
								"franchises",
								""
							]
						},
						"description": "Accepts a franchise object in request body and inserts new values into the database."
					},
					"response": []
				},
				{
					"name": "Update franchise",
					"request": {
						"method": "PUT",
						"header": [],
						"body": {
							"mode": "raw",
							"raw": "{\r\n    \"franchiseId\": 2,\r\n    \"name\": \"Star Wars\",\r\n    \"description\": \"Star Wars is an American epic space opera media franchise created by George Lucas.\",\r\n    \"movies\": [\r\n        {\r\n            \"movieId\": 2\r\n        }\r\n    ]\r\n}",
							"options": {
								"raw": {
									"language": "json"
								}
							}
						},
						"url": {
							"raw": "https://movie-api-experis.herokuapp.com/api/v1/franchises/2/",
							"protocol": "https",
							"host": [
								"movie-api-experis",
								"herokuapp",
								"com"
							],
							"path": [
								"api",
								"v1",
								"franchises",
								"2",
								""
							]
						},
						"description": "Accepts a franchise object in request body and updates values in the database on provided id (long).\n"
					},
					"response": []
				},
				{
					"name": "Delete franchise",
					"request": {
						"method": "DELETE",
						"header": [],
						"url": {
							"raw": "https://movie-api-experis.herokuapp.com/api/v1/franchises/6/",
							"protocol": "https",
							"host": [
								"movie-api-experis",
								"herokuapp",
								"com"
							],
							"path": [
								"api",
								"v1",
								"franchises",
								"6",
								""
							]
						},
						"description": "Deletes a franchise, specified by id (long)."
					},
					"response": []
				}
			],
			"protocolProfileBehavior": {}
		}
	],
	"protocolProfileBehavior": {}
}